Id,Name
1,Handball
2,Futsal
3,Table Tennis
4,Surfing
5,Bandy
6,Martial Arts
7,Rugby
8,Squash
9,Billiards
10,Baseball
11,Boxing
12,Bowls
13,Basketball
14,Streetball
15,Floorball
16,Hurling
17,Cricket
18,Volleyball
19,Gaelic Football
20,Ice Hockey
21,Football
22,Esports
23,Darts
24,Australian Rules
25,Chess
26,Badminton
27,UFC
28,Water Polo
29,American Football
30,Politics
31,Beach Volleyball
32,Snooker
33,Tennis